^D:\SABOTEUR FINAL\SABOTEUR\SABOTEURTESTS\STDAFX.CPP
D:\SABOTEUR FINAL\SABOTEUR\SABOTEURTESTS\DEBUG\SABOTEURTESTS.PCH
D:\SABOTEUR FINAL\SABOTEUR\SABOTEURTESTS\DEBUG\VC141.PDB
D:\SABOTEUR FINAL\SABOTEUR\SABOTEURTESTS\DEBUG\VC141.IDB
D:\SABOTEUR FINAL\SABOTEUR\SABOTEURTESTS\DEBUG\STDAFX.OBJ
^D:\SABOTEUR FINAL\SABOTEUR\SABOTEURTESTS\BOARDTESTS.CPP
D:\SABOTEUR FINAL\SABOTEUR\SABOTEURTESTS\DEBUG\VC141.PDB
D:\SABOTEUR FINAL\SABOTEUR\SABOTEURTESTS\DEBUG\VC141.IDB
D:\SABOTEUR FINAL\SABOTEUR\SABOTEURTESTS\DEBUG\BOARDTESTS.OBJ
^D:\SABOTEUR FINAL\SABOTEUR\SABOTEURTESTS\GAMETEST.CPP
D:\SABOTEUR FINAL\SABOTEUR\SABOTEURTESTS\DEBUG\VC141.PDB
D:\SABOTEUR FINAL\SABOTEUR\SABOTEURTESTS\DEBUG\VC141.IDB
D:\SABOTEUR FINAL\SABOTEUR\SABOTEURTESTS\DEBUG\GAMETEST.OBJ
^D:\SABOTEUR FINAL\SABOTEUR\SABOTEURTESTS\PATHCARDTEST.CPP
D:\SABOTEUR FINAL\SABOTEUR\SABOTEURTESTS\DEBUG\VC141.PDB
D:\SABOTEUR FINAL\SABOTEUR\SABOTEURTESTS\DEBUG\VC141.IDB
D:\SABOTEUR FINAL\SABOTEUR\SABOTEURTESTS\DEBUG\PATHCARDTEST.OBJ
^D:\SABOTEUR FINAL\SABOTEUR\SABOTEURTESTS\CARDDECKTEST.CPP
D:\SABOTEUR FINAL\SABOTEUR\SABOTEURTESTS\DEBUG\VC141.PDB
D:\SABOTEUR FINAL\SABOTEUR\SABOTEURTESTS\DEBUG\VC141.IDB
D:\SABOTEUR FINAL\SABOTEUR\SABOTEURTESTS\DEBUG\CARDDECKTEST.OBJ
^D:\SABOTEUR FINAL\SABOTEUR\SABOTEURTESTS\PLAYERTEST.CPP
D:\SABOTEUR FINAL\SABOTEUR\SABOTEURTESTS\DEBUG\VC141.PDB
D:\SABOTEUR FINAL\SABOTEUR\SABOTEURTESTS\DEBUG\VC141.IDB
D:\SABOTEUR FINAL\SABOTEUR\SABOTEURTESTS\DEBUG\PLAYERTEST.OBJ
