#Command: "C:\Program Files (x86)\Microsoft Visual Studio\2017\Community\VC\Tools\MSVC\14.15.26726\bin\HostX86\x86\link.exe" /ERRORREPORT:PROMPT @C:\Users\Madalina\AppData\Local\Temp\tmp36c00cdac2de472abd96118569b51684.rsp /incremental /nologo /fullbuild
^D:\SABOTEUR FINAL\SABOTEUR\SABOTEURTESTS\DEBUG\BOARDTESTS.OBJ|D:\SABOTEUR FINAL\SABOTEUR\SABOTEURTESTS\DEBUG\GAMETEST.OBJ|D:\SABOTEUR FINAL\SABOTEUR\SABOTEURTESTS\DEBUG\PATHCARDTEST.OBJ|D:\SABOTEUR FINAL\SABOTEUR\SABOTEURTESTS\DEBUG\STDAFX.OBJ
C:\USERS\MADALINA\APPDATA\LOCAL\TEMP\LNK{9823422A-8F10-44F8-9F33-AD794385D3FC}.TMP
