^D:\SABOTEUR FINAL\SABOTEUR\SABOTEURTESTS\DEBUG\BOARDTESTS.OBJ|D:\SABOTEUR FINAL\SABOTEUR\SABOTEURTESTS\DEBUG\CARDDECKTEST.OBJ|D:\SABOTEUR FINAL\SABOTEUR\SABOTEURTESTS\DEBUG\GAMETEST.OBJ|D:\SABOTEUR FINAL\SABOTEUR\SABOTEURTESTS\DEBUG\PATHCARDTEST.OBJ|D:\SABOTEUR FINAL\SABOTEUR\SABOTEURTESTS\DEBUG\PLAYERTEST.OBJ|D:\SABOTEUR FINAL\SABOTEUR\SABOTEURTESTS\DEBUG\STDAFX.OBJ
D:\SABOTEUR FINAL\SABOTEUR\BIN\DEBUG\WIN32\BOARD.OBJ
D:\SABOTEUR FINAL\SABOTEUR\BIN\DEBUG\WIN32\ACTIONCARD.OBJ
D:\SABOTEUR FINAL\SABOTEUR\BIN\DEBUG\WIN32\CARDDECK.OBJ
D:\SABOTEUR FINAL\SABOTEUR\BIN\DEBUG\WIN32\GAME.OBJ
D:\SABOTEUR FINAL\SABOTEUR\BIN\DEBUG\WIN32\PATHCARD.OBJ
D:\SABOTEUR FINAL\SABOTEUR\BIN\DEBUG\WIN32\PLAYER.OBJ
C:\PROGRAM FILES (X86)\WINDOWS KITS\10\LIB\10.0.17134.0\UM\X86\KERNEL32.LIB
C:\PROGRAM FILES (X86)\WINDOWS KITS\10\LIB\10.0.17134.0\UM\X86\USER32.LIB
C:\PROGRAM FILES (X86)\WINDOWS KITS\10\LIB\10.0.17134.0\UM\X86\GDI32.LIB
C:\PROGRAM FILES (X86)\WINDOWS KITS\10\LIB\10.0.17134.0\UM\X86\WINSPOOL.LIB
C:\PROGRAM FILES (X86)\WINDOWS KITS\10\LIB\10.0.17134.0\UM\X86\COMDLG32.LIB
C:\PROGRAM FILES (X86)\WINDOWS KITS\10\LIB\10.0.17134.0\UM\X86\ADVAPI32.LIB
C:\PROGRAM FILES (X86)\WINDOWS KITS\10\LIB\10.0.17134.0\UM\X86\SHELL32.LIB
C:\PROGRAM FILES (X86)\WINDOWS KITS\10\LIB\10.0.17134.0\UM\X86\OLE32.LIB
C:\PROGRAM FILES (X86)\WINDOWS KITS\10\LIB\10.0.17134.0\UM\X86\OLEAUT32.LIB
C:\PROGRAM FILES (X86)\WINDOWS KITS\10\LIB\10.0.17134.0\UM\X86\UUID.LIB
C:\PROGRAM FILES (X86)\WINDOWS KITS\10\LIB\10.0.17134.0\UM\X86\ODBC32.LIB
C:\PROGRAM FILES (X86)\WINDOWS KITS\10\LIB\10.0.17134.0\UM\X86\ODBCCP32.LIB
D:\SABOTEUR FINAL\SABOTEUR\SABOTEURTESTS\DEBUG\CARDDECKTEST.OBJ
D:\SABOTEUR FINAL\SABOTEUR\SABOTEURTESTS\DEBUG\GAMETEST.OBJ
D:\SABOTEUR FINAL\SABOTEUR\SABOTEURTESTS\DEBUG\PATHCARDTEST.OBJ
D:\SABOTEUR FINAL\SABOTEUR\SABOTEURTESTS\DEBUG\PLAYERTEST.OBJ
D:\SABOTEUR FINAL\SABOTEUR\SABOTEURTESTS\DEBUG\STDAFX.OBJ
D:\SABOTEUR FINAL\SABOTEUR\SABOTEURTESTS\DEBUG\BOARDTESTS.OBJ
C:\WINDOWS\SYSTEM32\TZRES.DLL
C:\WINDOWS\GLOBALIZATION\SORTING\SORTDEFAULT.NLS
C:\PROGRAM FILES (X86)\MICROSOFT VISUAL STUDIO\2017\COMMUNITY\VC\TOOLS\MSVC\14.15.26726\LIB\X86\MSVCPRTD.LIB
C:\PROGRAM FILES (X86)\MICROSOFT VISUAL STUDIO\2017\COMMUNITY\VC\TOOLS\MSVC\14.15.26726\LIB\X86\MSVCRTD.LIB
C:\PROGRAM FILES (X86)\MICROSOFT VISUAL STUDIO\2017\COMMUNITY\VC\TOOLS\MSVC\14.15.26726\LIB\X86\OLDNAMES.LIB
C:\PROGRAM FILES (X86)\MICROSOFT VISUAL STUDIO\2017\COMMUNITY\VC\AUXILIARY\VS\UNITTEST\LIB\X86\MICROSOFT.VISUALSTUDIO.TESTTOOLS.CPPUNITTESTFRAMEWORK.LIB
C:\PROGRAM FILES (X86)\MICROSOFT VISUAL STUDIO\2017\COMMUNITY\VC\TOOLS\MSVC\14.15.26726\LIB\X86\VCRUNTIMED.LIB
C:\PROGRAM FILES (X86)\WINDOWS KITS\10\LIB\10.0.17134.0\UCRT\X86\UCRTD.LIB
C:\PROGRAM FILES (X86)\MICROSOFT VISUAL STUDIO\2017\COMMUNITY\VC\TOOLS\MSVC\14.15.26726\BIN\HOSTX86\X86\VCTIP.EXE
