^D:\SABOTEUR FINAL\Saboteur\SaboteurTests\SaboteurTests.vcxproj
D:\SABOTEUR FINAL\Saboteur\Debug\SaboteurTests.lib
D:\SABOTEUR FINAL\Saboteur\Debug\SaboteurTests.exp
^D:\SABOTEUR FINAL\Saboteur\SaboteurTests\SaboteurTests.vcxproj
D:\SABOTEUR FINAL\Saboteur\Debug\SaboteurTests.lib
D:\SABOTEUR FINAL\Saboteur\Debug\SaboteurTests.exp
^D:\SABOTEUR FINAL\Saboteur\SaboteurTests\SaboteurTests.vcxproj
D:\SABOTEUR FINAL\Saboteur\Debug\SaboteurTests.lib
D:\SABOTEUR FINAL\Saboteur\Debug\SaboteurTests.exp
^D:\SABOTEUR FINAL\Saboteur\SaboteurTests\SaboteurTests.vcxproj
D:\SABOTEUR FINAL\Saboteur\Debug\SaboteurTests.lib
D:\SABOTEUR FINAL\Saboteur\Debug\SaboteurTests.exp
^D:\SABOTEUR FINAL\Saboteur\SaboteurTests\SaboteurTests.vcxproj
D:\SABOTEUR FINAL\Saboteur\Debug\SaboteurTests.lib
D:\SABOTEUR FINAL\Saboteur\Debug\SaboteurTests.exp
^D:\SABOTEUR FINAL\Saboteur\SaboteurTests\SaboteurTests.vcxproj
D:\SABOTEUR FINAL\Saboteur\Debug\SaboteurTests.lib
D:\SABOTEUR FINAL\Saboteur\Debug\SaboteurTests.exp
^D:\SABOTEUR FINAL\Saboteur\SaboteurTests\SaboteurTests.vcxproj
D:\SABOTEUR FINAL\Saboteur\Debug\SaboteurTests.lib
D:\SABOTEUR FINAL\Saboteur\Debug\SaboteurTests.exp
^D:\SABOTEUR FINAL\Saboteur\SaboteurTests\SaboteurTests.vcxproj
D:\SABOTEUR FINAL\Saboteur\Debug\SaboteurTests.lib
D:\SABOTEUR FINAL\Saboteur\Debug\SaboteurTests.exp
^D:\SABOTEUR FINAL\Saboteur\SaboteurTests\SaboteurTests.vcxproj
D:\SABOTEUR FINAL\Saboteur\Debug\SaboteurTests.lib
D:\SABOTEUR FINAL\Saboteur\Debug\SaboteurTests.exp
^D:\SABOTEUR FINAL\Saboteur\SaboteurTests\SaboteurTests.vcxproj
D:\SABOTEUR FINAL\Saboteur\Debug\SaboteurTests.lib
D:\SABOTEUR FINAL\Saboteur\Debug\SaboteurTests.exp
^D:\SABOTEUR FINAL\Saboteur\SaboteurTests\SaboteurTests.vcxproj
D:\SABOTEUR FINAL\Saboteur\Debug\SaboteurTests.lib
D:\SABOTEUR FINAL\Saboteur\Debug\SaboteurTests.exp
