^D:\PROJECTS\ELEMENTE MODERNE C++ - NEW\PROIECT - SABOTEUR\SABOTEUR\SABOTEUR\MAIN.CPP
/c /ZI /nologo /W3 /WX- /diagnostics:classic /sdl /Od /Oy- /D WIN32 /D _DEBUG /D _CONSOLE /D _UNICODE /D UNICODE /Gm- /EHsc /RTC1 /MDd /GS /fp:precise /permissive- /Zc:wchar_t /Zc:forScope /Zc:inline /Fo"DEBUG\\" /Fd"DEBUG\VC141.PDB" /Gd /TP /analyze- /FC D:\PROJECTS\ELEMENTE MODERNE C++ - NEW\PROIECT - SABOTEUR\SABOTEUR\SABOTEUR\MAIN.CPP
^C:\USERS\MADALINA\DOCUMENTS\VISUAL STUDIO 2017\PROIECT EMC SABOTEUR\SABOTEUR\SABOTEUR\CARD.CPP
/c /ZI /JMC /nologo /W3 /WX- /diagnostics:classic /sdl /Od /Oy- /D WIN32 /D _DEBUG /D _CONSOLE /D _UNICODE /D UNICODE /Gm- /EHsc /RTC1 /MDd /GS /fp:precise /permissive- /Zc:wchar_t /Zc:forScope /Zc:inline /Fo"DEBUG\\" /Fd"DEBUG\VC141.PDB" /Gd /TP /analyze- /FC C:\USERS\MADALINA\DOCUMENTS\VISUAL STUDIO 2017\PROIECT EMC SABOTEUR\SABOTEUR\SABOTEUR\CARD.CPP
^C:\USERS\MADALINA\DOCUMENTS\VISUAL STUDIO 2017\PROIECT EMC SABOTEUR\SABOTEUR\SABOTEUR\CARDDECK.CPP
/c /ZI /JMC /nologo /W3 /WX- /diagnostics:classic /sdl /Od /Oy- /D WIN32 /D _DEBUG /D _CONSOLE /D _UNICODE /D UNICODE /Gm- /EHsc /RTC1 /MDd /GS /fp:precise /permissive- /Zc:wchar_t /Zc:forScope /Zc:inline /Fo"DEBUG\\" /Fd"DEBUG\VC141.PDB" /Gd /TP /analyze- /FC C:\USERS\MADALINA\DOCUMENTS\VISUAL STUDIO 2017\PROIECT EMC SABOTEUR\SABOTEUR\SABOTEUR\CARDDECK.CPP
^C:\USERS\MADALINA\DOCUMENTS\VISUAL STUDIO 2017\PROIECT EMC SABOTEUR\SABOTEUR\SABOTEUR\MAIN.CPP
/c /ZI /JMC /nologo /W3 /WX- /diagnostics:classic /sdl /Od /Oy- /D WIN32 /D _DEBUG /D _CONSOLE /D _UNICODE /D UNICODE /Gm- /EHsc /RTC1 /MDd /GS /fp:precise /permissive- /Zc:wchar_t /Zc:forScope /Zc:inline /Fo"DEBUG\\" /Fd"DEBUG\VC141.PDB" /Gd /TP /analyze- /FC C:\USERS\MADALINA\DOCUMENTS\VISUAL STUDIO 2017\PROIECT EMC SABOTEUR\SABOTEUR\SABOTEUR\MAIN.CPP
^C:\USERS\MADALINA\DOCUMENTS\VISUAL STUDIO 2017\PROIECT EMC SABOTEUR\SABOTEUR\SABOTEUR\PLAYER.CPP
/c /ZI /JMC /nologo /W3 /WX- /diagnostics:classic /sdl /Od /Oy- /D WIN32 /D _DEBUG /D _CONSOLE /D _UNICODE /D UNICODE /Gm- /EHsc /RTC1 /MDd /GS /fp:precise /permissive- /Zc:wchar_t /Zc:forScope /Zc:inline /Fo"DEBUG\\" /Fd"DEBUG\VC141.PDB" /Gd /TP /analyze- /FC C:\USERS\MADALINA\DOCUMENTS\VISUAL STUDIO 2017\PROIECT EMC SABOTEUR\SABOTEUR\SABOTEUR\PLAYER.CPP
^D:\SABOTEUR FINAL\SABOTEUR\SABOTEUR\ACTIONCARD.CPP
/c /I"D:\SABOTEUR FINAL\SFML\INCLUDE" /ZI /JMC /nologo /W3 /WX- /diagnostics:classic /sdl /Od /Oy- /D WIN32 /D _DEBUG /D _CONSOLE /D _UNICODE /D UNICODE /Gm- /EHsc /RTC1 /MDd /GS /fp:precise /permissive- /Zc:wchar_t /Zc:forScope /Zc:inline /std:c++17 /Fo"DEBUG\\" /Fd"DEBUG\VC141.PDB" /Gd /TP /analyze- /FC D:\SABOTEUR FINAL\SABOTEUR\SABOTEUR\ACTIONCARD.CPP
^D:\SABOTEUR FINAL\SABOTEUR\SABOTEUR\BOARD.CPP
/c /I"D:\SABOTEUR FINAL\SFML\INCLUDE" /ZI /JMC /nologo /W3 /WX- /diagnostics:classic /sdl /Od /Oy- /D WIN32 /D _DEBUG /D _CONSOLE /D _UNICODE /D UNICODE /Gm- /EHsc /RTC1 /MDd /GS /fp:precise /permissive- /Zc:wchar_t /Zc:forScope /Zc:inline /std:c++17 /Fo"DEBUG\\" /Fd"DEBUG\VC141.PDB" /Gd /TP /analyze- /FC D:\SABOTEUR FINAL\SABOTEUR\SABOTEUR\BOARD.CPP
^D:\SABOTEUR FINAL\SABOTEUR\SABOTEUR\CARDDECK.CPP
/c /I"D:\SABOTEUR FINAL\SFML\INCLUDE" /ZI /JMC /nologo /W3 /WX- /diagnostics:classic /sdl /Od /Oy- /D WIN32 /D _DEBUG /D _CONSOLE /D _UNICODE /D UNICODE /Gm- /EHsc /RTC1 /MDd /GS /fp:precise /permissive- /Zc:wchar_t /Zc:forScope /Zc:inline /std:c++17 /Fo"DEBUG\\" /Fd"DEBUG\VC141.PDB" /Gd /TP /analyze- /FC D:\SABOTEUR FINAL\SABOTEUR\SABOTEUR\CARDDECK.CPP
^D:\SABOTEUR FINAL\SABOTEUR\SABOTEUR\GRAPHIC.CPP
/c /I"D:\SABOTEUR FINAL\SFML\INCLUDE" /ZI /JMC /nologo /W3 /WX- /diagnostics:classic /sdl /Od /Oy- /D WIN32 /D _DEBUG /D _CONSOLE /D _UNICODE /D UNICODE /Gm- /EHsc /RTC1 /MDd /GS /fp:precise /permissive- /Zc:wchar_t /Zc:forScope /Zc:inline /std:c++17 /Fo"DEBUG\\" /Fd"DEBUG\VC141.PDB" /Gd /TP /analyze- /FC D:\SABOTEUR FINAL\SABOTEUR\SABOTEUR\GRAPHIC.CPP
^D:\SABOTEUR FINAL\SABOTEUR\SABOTEUR\MAIN.CPP
/c /I"D:\SABOTEUR FINAL\SFML\INCLUDE" /ZI /JMC /nologo /W3 /WX- /diagnostics:classic /sdl /Od /Oy- /D WIN32 /D _DEBUG /D _CONSOLE /D _UNICODE /D UNICODE /Gm- /EHsc /RTC1 /MDd /GS /fp:precise /permissive- /Zc:wchar_t /Zc:forScope /Zc:inline /std:c++17 /Fo"DEBUG\\" /Fd"DEBUG\VC141.PDB" /Gd /TP /analyze- /FC D:\SABOTEUR FINAL\SABOTEUR\SABOTEUR\MAIN.CPP
^D:\SABOTEUR FINAL\SABOTEUR\SABOTEUR\PATHCARD.CPP
/c /I"D:\SABOTEUR FINAL\SFML\INCLUDE" /ZI /JMC /nologo /W3 /WX- /diagnostics:classic /sdl /Od /Oy- /D WIN32 /D _DEBUG /D _CONSOLE /D _UNICODE /D UNICODE /Gm- /EHsc /RTC1 /MDd /GS /fp:precise /permissive- /Zc:wchar_t /Zc:forScope /Zc:inline /std:c++17 /Fo"DEBUG\\" /Fd"DEBUG\VC141.PDB" /Gd /TP /analyze- /FC D:\SABOTEUR FINAL\SABOTEUR\SABOTEUR\PATHCARD.CPP
^D:\SABOTEUR FINAL\SABOTEUR\SABOTEUR\PLAYER.CPP
/c /I"D:\SABOTEUR FINAL\SFML\INCLUDE" /ZI /JMC /nologo /W3 /WX- /diagnostics:classic /sdl /Od /Oy- /D WIN32 /D _DEBUG /D _CONSOLE /D _UNICODE /D UNICODE /Gm- /EHsc /RTC1 /MDd /GS /fp:precise /permissive- /Zc:wchar_t /Zc:forScope /Zc:inline /std:c++17 /Fo"DEBUG\\" /Fd"DEBUG\VC141.PDB" /Gd /TP /analyze- /FC D:\SABOTEUR FINAL\SABOTEUR\SABOTEUR\PLAYER.CPP
^D:\SABOTEUR FINAL\SABOTEUR\SABOTEUR\GAME.CPP
/c /I"D:\SABOTEUR FINAL\SFML\INCLUDE" /ZI /JMC /nologo /W3 /WX- /diagnostics:classic /sdl /Od /Oy- /D WIN32 /D _DEBUG /D _CONSOLE /D _UNICODE /D UNICODE /Gm- /EHsc /RTC1 /MDd /GS /fp:precise /permissive- /Zc:wchar_t /Zc:forScope /Zc:inline /std:c++17 /Fo"DEBUG\\" /Fd"DEBUG\VC141.PDB" /Gd /TP /analyze- /FC D:\SABOTEUR FINAL\SABOTEUR\SABOTEUR\GAME.CPP
