^D:\SABOTEUR FINAL\SABOTEUR\BIN\RELEASE\WIN32\ACTIONCARD.OBJ|D:\SABOTEUR FINAL\SABOTEUR\BIN\RELEASE\WIN32\BOARD.OBJ|D:\SABOTEUR FINAL\SABOTEUR\BIN\RELEASE\WIN32\CARDDECK.OBJ|D:\SABOTEUR FINAL\SABOTEUR\BIN\RELEASE\WIN32\GAME.OBJ|D:\SABOTEUR FINAL\SABOTEUR\BIN\RELEASE\WIN32\GRAPHIC.OBJ|D:\SABOTEUR FINAL\SABOTEUR\BIN\RELEASE\WIN32\MAIN.OBJ|D:\SABOTEUR FINAL\SABOTEUR\BIN\RELEASE\WIN32\PATHCARD.OBJ|D:\SABOTEUR FINAL\SABOTEUR\BIN\RELEASE\WIN32\PLAYER.OBJ
D:\SABOTEUR FINAL\SABOTEUR\BIN\RELEASE\WIN32\SABOTEUR.EXE
D:\SABOTEUR FINAL\SABOTEUR\BIN\RELEASE\WIN32\SABOTEUR.PDB
