^D:\SABOTEUR FINAL\SABOTEUR\SABOTEUR\BOARD.CPP|D:\SABOTEUR FINAL\SABOTEUR\SABOTEUR\GAME.CPP|D:\SABOTEUR FINAL\SABOTEUR\SABOTEUR\GRAPHIC.CPP|D:\SABOTEUR FINAL\SABOTEUR\SABOTEUR\MAIN.CPP
D:\SABOTEUR FINAL\SABOTEUR\BIN\DEBUG\WIN32\MAIN.OBJ
D:\SABOTEUR FINAL\SABOTEUR\BIN\DEBUG\WIN32\GRAPHIC.OBJ
D:\SABOTEUR FINAL\SABOTEUR\BIN\DEBUG\WIN32\GAME.OBJ
D:\SABOTEUR FINAL\SABOTEUR\BIN\DEBUG\WIN32\BOARD.OBJ
^D:\SABOTEUR FINAL\SABOTEUR\SABOTEUR\ACTIONCARD.CPP|D:\SABOTEUR FINAL\SABOTEUR\SABOTEUR\BOARD.CPP|D:\SABOTEUR FINAL\SABOTEUR\SABOTEUR\CARDDECK.CPP|D:\SABOTEUR FINAL\SABOTEUR\SABOTEUR\GAME.CPP|D:\SABOTEUR FINAL\SABOTEUR\SABOTEUR\GRAPHIC.CPP|D:\SABOTEUR FINAL\SABOTEUR\SABOTEUR\MAIN.CPP|D:\SABOTEUR FINAL\SABOTEUR\SABOTEUR\PATHCARD.CPP|D:\SABOTEUR FINAL\SABOTEUR\SABOTEUR\PLAYER.CPP
D:\SABOTEUR FINAL\SABOTEUR\BIN\DEBUG\WIN32\PLAYER.OBJ
D:\SABOTEUR FINAL\SABOTEUR\BIN\DEBUG\WIN32\PATHCARD.OBJ
D:\SABOTEUR FINAL\SABOTEUR\BIN\DEBUG\WIN32\MAIN.OBJ
D:\SABOTEUR FINAL\SABOTEUR\BIN\DEBUG\WIN32\GRAPHIC.OBJ
D:\SABOTEUR FINAL\SABOTEUR\BIN\DEBUG\WIN32\GAME.OBJ
D:\SABOTEUR FINAL\SABOTEUR\BIN\DEBUG\WIN32\CARDDECK.OBJ
D:\SABOTEUR FINAL\SABOTEUR\BIN\DEBUG\WIN32\BOARD.OBJ
D:\SABOTEUR FINAL\SABOTEUR\BIN\DEBUG\WIN32\ACTIONCARD.OBJ
^D:\SABOTEUR FINAL\SABOTEUR\SABOTEUR\BOARD.CPP|D:\SABOTEUR FINAL\SABOTEUR\SABOTEUR\GRAPHIC.CPP|D:\SABOTEUR FINAL\SABOTEUR\SABOTEUR\MAIN.CPP
D:\SABOTEUR FINAL\SABOTEUR\BIN\DEBUG\WIN32\MAIN.OBJ
D:\SABOTEUR FINAL\SABOTEUR\BIN\DEBUG\WIN32\GRAPHIC.OBJ
D:\SABOTEUR FINAL\SABOTEUR\BIN\DEBUG\WIN32\BOARD.OBJ
