^C:\USERS\MADALINA\DOCUMENTS\VISUAL STUDIO 2017\DLL\DLL\DEBUG\SABOTEURV1.OBJ
C:\USERS\MADALINA\DOCUMENTS\VISUAL STUDIO 2017\DLL\DEBUG\DLL.DLL
C:\USERS\MADALINA\DOCUMENTS\VISUAL STUDIO 2017\DLL\DEBUG\DLL.ILK
C:\USERS\MADALINA\DOCUMENTS\VISUAL STUDIO 2017\DLL\DEBUG\DLL.PDB
