#Command: "C:\Program Files (x86)\Microsoft Visual Studio\2017\Community\VC\Tools\MSVC\14.15.26726\bin\HostX86\x86\link.exe" /ERRORREPORT:PROMPT @C:\Users\Madalina\AppData\Local\Temp\tmp5faaefd4280d454d9c560f2a70ad284e.rsp /incremental /nologo /fullbuild
^C:\USERS\MADALINA\DOCUMENTS\VISUAL STUDIO 2017\DLL\DLL\DEBUG\SABOTEURV1.OBJ
C:\USERS\MADALINA\APPDATA\LOCAL\TEMP\LNK{DD7DFFA2-3B3B-4FF2-86C3-8A101ED6C189}.TMP
