#Command: "C:\Program Files (x86)\Microsoft Visual Studio\2017\Community\VC\Tools\MSVC\14.15.26726\bin\HostX86\x86\link.exe" /ERRORREPORT:PROMPT @C:\Users\Madalina\AppData\Local\Temp\tmp8b96bf67c8f74264a0099b02b76bc5a0.rsp /incremental /nologo /fullbuild
^C:\USERS\MADALINA\DOCUMENTS\VISUAL STUDIO 2017\DLL\DLL\DEBUG\SABOTEURV1.OBJ
C:\USERS\MADALINA\APPDATA\LOCAL\TEMP\LNK{40112727-B90B-4F4F-8A41-D38E927BED47}.TMP
