#Command: "C:\Program Files (x86)\Microsoft Visual Studio\2017\Community\VC\Tools\MSVC\14.15.26726\bin\HostX86\x86\link.exe" /ERRORREPORT:PROMPT @C:\Users\Madalina\AppData\Local\Temp\tmpcbe0c661ae09444696cd6dd095e180c3.rsp /incremental /nologo /fullbuild
^C:\USERS\MADALINA\DOCUMENTS\VISUAL STUDIO 2017\DLL\DLL\DEBUG\SABOTEURV1.OBJ
C:\USERS\MADALINA\APPDATA\LOCAL\TEMP\LNK{380A7AEE-47B7-4599-9CC6-B9D0B443CF1F}.TMP
